[
    { 
        "value": "Mixed",
        "label": "Mixed" 
    },
    { 
        "value": "Residential",
        "label": "Residential" 
    },
    {   
        "value": "Tourist",
        "label": "Tourist" 
    }
]